[35m[Appium][39m Welcome to Appium v1.22.3
[35m[Appium][39m Non-default server args:
[35m[Appium][39m   port: 62337
[35m[Appium][39m   loglevel: info
[35m[Appium][39m   tmpDir: C:\Users\dany\AppData\Local\Temp\\Katalon\Appium\Temp1688476243865
[35m[Appium][39m   chromedriverPort: 62339
[35m[Appium][39m Deprecated server args:
[35m[Appium][39m   [31m--chromedriver-port[39m => --default-capabilities
[35m[Appium][39m Default capabilities, which will be added to each request unless overridden by desired capabilities:
[35m[Appium][39m   chromedriverPort: 62339
[35m[Appium][39m Appium REST http interface listener started on 0.0.0.0:62337
[35m[HTTP][39m [37m-->[39m [37mGET[39m [37m/wd/hub/status[39m
[35m[HTTP][39m [90m{}[39m
[35m[HTTP][39m [37m<-- GET /wd/hub/status [39m[32m200[39m [90m11 ms - 68[39m
[35m[HTTP][39m [90m[39m
[35m[HTTP][39m [37m-->[39m [37mGET[39m [37m/wd/hub/status[39m
[35m[HTTP][39m [90m{}[39m
[35m[HTTP][39m [37m<-- GET /wd/hub/status [39m[32m200[39m [90m2 ms - 68[39m
[35m[HTTP][39m [90m[39m
[35m[HTTP][39m [37m-->[39m [37mPOST[39m [37m/wd/hub/session[39m
[35m[HTTP][39m [90m{"desiredCapabilities":{"app":"D:\\katalon\\Android-MyDemoAppRN.1.2.0.build-231.apk","noReset":true,"deviceId":"","deviceName":"samsung SM-A115F (Android 10)","fullReset":false,"platform":"ANDROID","newCommandTimeout":1800,"platformVersion":"10","automationName":"uiautomator2","autoGrantPermissions":true,"platformName":"Android","udid":"R9RNB00NN0K","systemPort":62348},"capabilities":{"firstMatch":[{"appium:app":"D:\\katalon\\Android-MyDemoAppRN.1.2.0.build-231.apk","appium:autoGrantPermissions":true,"appium:automationName":"uiautomator2","deviceId":"","appium:deviceName":"samsung SM-A115F (Android 10)","appium:fullReset":false,"appium:newCommandTimeout":1800,"appium:noReset":true,"platform":"ANDROID","platformName":"android","appium:platformVersion":"10","appium:systemPort":62348,"appium:udid":"R9RNB00NN0K"}]}}[39m
[35m[BaseDriver][39m The following capabilities are not standard capabilities and should have an extension prefix:
[35m[BaseDriver][39m   deviceId
[35m[BaseDriver][39m   platform
[35m[BaseDriver][39m   chromedriverPort
[35m[Appium][39m Appium v1.22.3 creating new AndroidUiautomator2Driver (v1.70.1) session
[35m[BaseDriver][39m The following capabilities were provided, but are not recognized by Appium:
[35m[BaseDriver][39m   deviceId
[35m[BaseDriver][39m   platform
[35m[BaseDriver][39m Session created with session id: a7be4dbf-2c76-4f41-a61d-de3ebd791e7f
[35m[BaseDriver][39m Using local app 'D:\katalon\Android-MyDemoAppRN.1.2.0.build-231.apk'
[35m[ADB][39m Found 1 'build-tools' folders under 'C:\Users\dany\.katalon\tools\android_sdk' (newest first):
[35m[ADB][39m     C:/Users/dany/.katalon/tools/android_sdk/build-tools/29.0.3
[35m[ADB][39m Using 'adb.exe' from 'C:\Users\dany\.katalon\tools\android_sdk\platform-tools\adb.exe'
[35m[AndroidDriver][39m Retrieving device list
[35m[AndroidDriver][39m Using device: R9RNB00NN0K
[35m[ADB][39m Using 'adb.exe' from 'C:\Users\dany\.katalon\tools\android_sdk\platform-tools\adb.exe'
[35m[ADB][39m Getting device platform version
[35m[UiAutomator2][39m Relaxing hidden api policy
[35m[ADB][39m Package name: 'com.saucelabs.mydemoapp.rn'
[35m[ADB][39m Main activity name: 'com.saucelabs.mydemoapp.rn.MainActivity'
[35m[ADB][39m Using 'apksigner.jar' from 'C:\Users\dany\.katalon\tools\android_sdk\build-tools\29.0.3\lib\apksigner.jar'
[35m[ADB][39m 'C:\Users\dany\AppData\Roaming\npm\node_modules\appium\node_modules\appium-uiautomator2-server\apks\appium-uiautomator2-server-v4.27.0.apk' is signed with the default certificate
[35m[ADB][39m 'C:\Users\dany\AppData\Roaming\npm\node_modules\appium\node_modules\appium-uiautomator2-server\apks\appium-uiautomator2-server-debug-androidTest.apk' is signed with the default certificate
[35m[UiAutomator2][39m Server packages are not going to be (re)installed
[35m[ADB][39m Adding packages ["io.appium.settings","io.appium.uiautomator2.server","io.appium.uiautomator2.server.test"] to Doze whitelist
[35m[ADB][39m 'D:\katalon\Android-MyDemoAppRN.1.2.0.build-231.apk' is signed with a non-default certificate
[35m[ADB][39m The application at 'D:\katalon\Android-MyDemoAppRN.1.2.0.build-231.apk' will not be cached, because the device under test has confirmed the support of streamed installs
[35m[ADB][39m The installation of 'Android-MyDemoAppRN.1.2.0.build-231.apk' took 10328ms
[35m[UiAutomator2][39m Starting UIAutomator2 server 4.27.0
[35m[UiAutomator2][39m Using UIAutomator2 server from 'C:\Users\dany\AppData\Roaming\npm\node_modules\appium\node_modules\appium-uiautomator2-server\apks\appium-uiautomator2-server-v4.27.0.apk' and test from 'C:\Users\dany\AppData\Roaming\npm\node_modules\appium\node_modules\appium-uiautomator2-server\apks\appium-uiautomator2-server-debug-androidTest.apk'
[35m[UiAutomator2][39m Waiting up to 30000ms for UiAutomator2 to be online...
[35m[WD Proxy][39m socket hang up
[35m[WD Proxy][39m socket hang up
[35m[WD Proxy][39m socket hang up
[35m[WD Proxy][39m socket hang up
[35m[WD Proxy][39m socket hang up
[35m[WD Proxy][39m socket hang up
[35m[WD Proxy][39m Determined the downstream protocol as 'W3C'
[35m[AndroidDriver][39m Screen already unlocked, doing nothing
[35m[UiAutomator2][39m Starting 'com.saucelabs.mydemoapp.rn/com.saucelabs.mydemoapp.rn.MainActivity and waiting for 'com.saucelabs.mydemoapp.rn/com.saucelabs.mydemoapp.rn.MainActivity'
[35m[Appium][39m New AndroidUiautomator2Driver session created successfully, session a7be4dbf-2c76-4f41-a61d-de3ebd791e7f added to master session list
[35m[HTTP][39m [37m<-- POST /wd/hub/session [39m[32m200[39m [90m37308 ms - 1291[39m
[35m[HTTP][39m [90m[39m
[35m[HTTP][39m [37m-->[39m [37mGET[39m [37m/wd/hub/session/a7be4dbf-2c76-4f41-a61d-de3ebd791e7f[39m
[35m[HTTP][39m [90m{}[39m
[35m[HTTP][39m [37m<-- GET /wd/hub/session/a7be4dbf-2c76-4f41-a61d-de3ebd791e7f [39m[32m200[39m [90m21 ms - 1245[39m
[35m[HTTP][39m [90m[39m
[35m[HTTP][39m [37m-->[39m [37mGET[39m [37m/wd/hub/session/a7be4dbf-2c76-4f41-a61d-de3ebd791e7f[39m
[35m[HTTP][39m [90m{}[39m
[35m[HTTP][39m [37m<-- GET /wd/hub/session/a7be4dbf-2c76-4f41-a61d-de3ebd791e7f [39m[32m200[39m [90m19 ms - 1245[39m
[35m[HTTP][39m [90m[39m
[35m[HTTP][39m [37m-->[39m [37mGET[39m [37m/wd/hub/status[39m
[35m[HTTP][39m [90m{}[39m
[35m[HTTP][39m [37m<-- GET /wd/hub/status [39m[32m200[39m [90m2 ms - 68[39m
[35m[HTTP][39m [90m[39m
[35m[HTTP][39m [37m-->[39m [37mPOST[39m [37m/wd/hub/session/a7be4dbf-2c76-4f41-a61d-de3ebd791e7f/timeouts[39m
[35m[HTTP][39m [90m{"implicit":60000}[39m
[35m[HTTP][39m [37m<-- POST /wd/hub/session/a7be4dbf-2c76-4f41-a61d-de3ebd791e7f/timeouts [39m[32m200[39m [90m6 ms - 14[39m
[35m[HTTP][39m [90m[39m
[35m[HTTP][39m [37m-->[39m [37mGET[39m [37m/wd/hub/session/a7be4dbf-2c76-4f41-a61d-de3ebd791e7f/source[39m
[35m[HTTP][39m [90m{}[39m
[35m[W3C (a7be4dbf)][39m Driver proxy active, passing request on via HTTP proxy
[35m[WD Proxy][39m Replacing sessionId 61bf5105-7a0f-4e28-b149-3a651ad15204 with a7be4dbf-2c76-4f41-a61d-de3ebd791e7f
[35m[HTTP][39m [37m<-- GET /wd/hub/session/a7be4dbf-2c76-4f41-a61d-de3ebd791e7f/source [39m[32m200[39m [90m1226 ms - 53498[39m
[35m[HTTP][39m [90m[39m
[35m[HTTP][39m [37m-->[39m [37mGET[39m [37m/wd/hub/session/a7be4dbf-2c76-4f41-a61d-de3ebd791e7f/screenshot[39m
[35m[HTTP][39m [90m{}[39m
[35m[HTTP][39m [37m<-- GET /wd/hub/session/a7be4dbf-2c76-4f41-a61d-de3ebd791e7f/screenshot [39m[32m200[39m [90m1374 ms - 992928[39m
[35m[HTTP][39m [90m[39m
[35m[HTTP][39m [37m-->[39m [37mPOST[39m [37m/wd/hub/session/a7be4dbf-2c76-4f41-a61d-de3ebd791e7f/elements[39m
[35m[HTTP][39m [90m{"using":"xpath","value":"//*[@class = 'android.widget.ImageView' and (@text = '' or . = '')]"}[39m
[35m[HTTP][39m [37m<-- POST /wd/hub/session/a7be4dbf-2c76-4f41-a61d-de3ebd791e7f/elements [39m[32m200[39m [90m1501 ms - 1291[39m
[35m[HTTP][39m [90m[39m
[35m[HTTP][39m [37m-->[39m [37mPOST[39m [37m/wd/hub/session/a7be4dbf-2c76-4f41-a61d-de3ebd791e7f/elements[39m
[35m[HTTP][39m [90m{"using":"-android uiautomator","value":"new UiSelector().className(\"android.widget.ImageView\")"}[39m
[35m[HTTP][39m [37m<-- POST /wd/hub/session/a7be4dbf-2c76-4f41-a61d-de3ebd791e7f/elements [39m[32m200[39m [90m346 ms - 1291[39m
[35m[HTTP][39m [90m[39m
[35m[HTTP][39m [37m-->[39m [37mGET[39m [37m/wd/hub/session/a7be4dbf-2c76-4f41-a61d-de3ebd791e7f/window/rect[39m
[35m[HTTP][39m [90m{}[39m
[35m[HTTP][39m [37m<-- GET /wd/hub/session/a7be4dbf-2c76-4f41-a61d-de3ebd791e7f/window/rect [39m[32m200[39m [90m53 ms - 49[39m
[35m[HTTP][39m [90m[39m
[35m[HTTP][39m [37m-->[39m [37mPOST[39m [37m/wd/hub/session/a7be4dbf-2c76-4f41-a61d-de3ebd791e7f/elements[39m
[35m[HTTP][39m [90m{"using":"xpath","value":"//hierarchy/android.widget.FrameLayout[1]/android.widget.LinearLayout[1]/android.widget.FrameLayout[1]/android.widget.LinearLayout[1]/android.widget.FrameLayout[1]/android.widget.FrameLayout[1]/android.view.ViewGroup[1]/android.view.ViewGroup[1]/android.view.ViewGroup[1]/android.view.ViewGroup[1]/android.view.ViewGroup[1]/android.view.ViewGroup[1]/android.widget.FrameLayout[1]/android.view.ViewGroup[1]/android.view.ViewGroup[1]/android.view.ViewGroup[1]/android.view.ViewGroup[1]/android.view.ViewGroup[1]/android.widget.FrameLayout[1]/android.view.ViewGroup[1]/android.view.ViewGroup[1]/android.view.ViewGroup[1]/android.view.ViewGroup[1]/android.view.ViewGroup[1]/android.view.ViewGroup[2]/android.widget.ScrollView[1]/android.view.ViewGroup[1]/android.view.ViewGroup[2]/android.view.ViewGroup[1]/android.view.ViewGroup[1]/android.widget.ImageView[1]"}[39m
[35m[HTTP][39m [37m<-- POST /wd/hub/session/a7be4dbf-2c76-4f41-a61d-de3ebd791e7f/elements [39m[32m200[39m [90m382 ms - 139[39m
[35m[HTTP][39m [90m[39m
[35m[HTTP][39m [37m-->[39m [37mGET[39m [37m/wd/hub/session/a7be4dbf-2c76-4f41-a61d-de3ebd791e7f/element/00000000-0000-078e-ffff-ffff00000035/location[39m
[35m[HTTP][39m [90m{}[39m
[35m[W3C (a7be4dbf)][39m Driver proxy active, passing request on via HTTP proxy
[35m[WD Proxy][39m Replacing sessionId 61bf5105-7a0f-4e28-b149-3a651ad15204 with a7be4dbf-2c76-4f41-a61d-de3ebd791e7f
[35m[HTTP][39m [37m<-- GET /wd/hub/session/a7be4dbf-2c76-4f41-a61d-de3ebd791e7f/element/00000000-0000-078e-ffff-ffff00000035/location [39m[32m200[39m [90m41 ms - 77[39m
[35m[HTTP][39m [90m[39m
[35m[HTTP][39m [37m-->[39m [37mPOST[39m [37m/wd/hub/session/a7be4dbf-2c76-4f41-a61d-de3ebd791e7f/element/00000000-0000-078e-ffff-ffff00000035/click[39m
[35m[HTTP][39m [90m{"id":"00000000-0000-078e-ffff-ffff00000035"}[39m
[35m[HTTP][39m [37m<-- POST /wd/hub/session/a7be4dbf-2c76-4f41-a61d-de3ebd791e7f/element/00000000-0000-078e-ffff-ffff00000035/click [39m[32m200[39m [90m135 ms - 14[39m
[35m[HTTP][39m [90m[39m
[35m[HTTP][39m [37m-->[39m [37mGET[39m [37m/wd/hub/session/a7be4dbf-2c76-4f41-a61d-de3ebd791e7f/source[39m
[35m[HTTP][39m [90m{}[39m
[35m[W3C (a7be4dbf)][39m Driver proxy active, passing request on via HTTP proxy
[35m[WD Proxy][39m Replacing sessionId 61bf5105-7a0f-4e28-b149-3a651ad15204 with a7be4dbf-2c76-4f41-a61d-de3ebd791e7f
[35m[HTTP][39m [37m<-- GET /wd/hub/session/a7be4dbf-2c76-4f41-a61d-de3ebd791e7f/source [39m[32m200[39m [90m940 ms - 31934[39m
[35m[HTTP][39m [90m[39m
[35m[HTTP][39m [37m-->[39m [37mGET[39m [37m/wd/hub/session/a7be4dbf-2c76-4f41-a61d-de3ebd791e7f/screenshot[39m
[35m[HTTP][39m [90m{}[39m
[35m[HTTP][39m [37m<-- GET /wd/hub/session/a7be4dbf-2c76-4f41-a61d-de3ebd791e7f/screenshot [39m[32m200[39m [90m1099 ms - 496442[39m
[35m[HTTP][39m [90m[39m
[35m[HTTP][39m [37m-->[39m [37mPOST[39m [37m/wd/hub/session/a7be4dbf-2c76-4f41-a61d-de3ebd791e7f/elements[39m
[35m[HTTP][39m [90m{"using":"xpath","value":"//*[@class = 'android.view.ViewGroup' and (@text = '' or . = '')]"}[39m
[35m[HTTP][39m [37m<-- POST /wd/hub/session/a7be4dbf-2c76-4f41-a61d-de3ebd791e7f/elements [39m[32m200[39m [90m459 ms - 5259[39m
[35m[HTTP][39m [90m[39m
[35m[HTTP][39m [37m-->[39m [37mPOST[39m [37m/wd/hub/session/a7be4dbf-2c76-4f41-a61d-de3ebd791e7f/elements[39m
[35m[HTTP][39m [90m{"using":"accessibility id","value":"Add To Cart button"}[39m
[35m[HTTP][39m [37m<-- POST /wd/hub/session/a7be4dbf-2c76-4f41-a61d-de3ebd791e7f/elements [39m[32m200[39m [90m182 ms - 139[39m
[35m[HTTP][39m [90m[39m
[35m[HTTP][39m [37m-->[39m [37mGET[39m [37m/wd/hub/session/a7be4dbf-2c76-4f41-a61d-de3ebd791e7f/window/rect[39m
[35m[HTTP][39m [90m{}[39m
[35m[HTTP][39m [37m<-- GET /wd/hub/session/a7be4dbf-2c76-4f41-a61d-de3ebd791e7f/window/rect [39m[32m200[39m [90m38 ms - 49[39m
[35m[HTTP][39m [90m[39m
[35m[HTTP][39m [37m-->[39m [37mPOST[39m [37m/wd/hub/session/a7be4dbf-2c76-4f41-a61d-de3ebd791e7f/elements[39m
[35m[HTTP][39m [90m{"using":"accessibility id","value":"Add To Cart button"}[39m
[35m[HTTP][39m [37m<-- POST /wd/hub/session/a7be4dbf-2c76-4f41-a61d-de3ebd791e7f/elements [39m[32m200[39m [90m130 ms - 139[39m
[35m[HTTP][39m [90m[39m
[35m[HTTP][39m [37m-->[39m [37mGET[39m [37m/wd/hub/session/a7be4dbf-2c76-4f41-a61d-de3ebd791e7f/element/00000000-0000-078e-ffff-ffff000000d0/location[39m
[35m[HTTP][39m [90m{}[39m
[35m[W3C (a7be4dbf)][39m Driver proxy active, passing request on via HTTP proxy
[35m[WD Proxy][39m Replacing sessionId 61bf5105-7a0f-4e28-b149-3a651ad15204 with a7be4dbf-2c76-4f41-a61d-de3ebd791e7f
[35m[HTTP][39m [37m<-- GET /wd/hub/session/a7be4dbf-2c76-4f41-a61d-de3ebd791e7f/element/00000000-0000-078e-ffff-ffff000000d0/location [39m[32m200[39m [90m53 ms - 79[39m
[35m[HTTP][39m [90m[39m
[35m[HTTP][39m [37m-->[39m [37mPOST[39m [37m/wd/hub/session/a7be4dbf-2c76-4f41-a61d-de3ebd791e7f/element/00000000-0000-078e-ffff-ffff000000d0/click[39m
[35m[HTTP][39m [90m{"id":"00000000-0000-078e-ffff-ffff000000d0"}[39m
[35m[HTTP][39m [37m<-- POST /wd/hub/session/a7be4dbf-2c76-4f41-a61d-de3ebd791e7f/element/00000000-0000-078e-ffff-ffff000000d0/click [39m[32m200[39m [90m69 ms - 14[39m
[35m[HTTP][39m [90m[39m
[35m[HTTP][39m [37m-->[39m [37mGET[39m [37m/wd/hub/session/a7be4dbf-2c76-4f41-a61d-de3ebd791e7f/source[39m
[35m[HTTP][39m [90m{}[39m
[35m[W3C (a7be4dbf)][39m Driver proxy active, passing request on via HTTP proxy
[35m[WD Proxy][39m Replacing sessionId 61bf5105-7a0f-4e28-b149-3a651ad15204 with a7be4dbf-2c76-4f41-a61d-de3ebd791e7f
[35m[HTTP][39m [37m<-- GET /wd/hub/session/a7be4dbf-2c76-4f41-a61d-de3ebd791e7f/source [39m[32m200[39m [90m671 ms - 32364[39m
[35m[HTTP][39m [90m[39m
[35m[HTTP][39m [37m-->[39m [37mGET[39m [37m/wd/hub/session/a7be4dbf-2c76-4f41-a61d-de3ebd791e7f/screenshot[39m
[35m[HTTP][39m [90m{}[39m
[35m[HTTP][39m [37m<-- GET /wd/hub/session/a7be4dbf-2c76-4f41-a61d-de3ebd791e7f/screenshot [39m[32m200[39m [90m971 ms - 496872[39m
[35m[HTTP][39m [90m[39m
[35m[HTTP][39m [37m-->[39m [37mPOST[39m [37m/wd/hub/session/a7be4dbf-2c76-4f41-a61d-de3ebd791e7f/elements[39m
[35m[HTTP][39m [90m{"using":"xpath","value":"//*[@class = 'android.widget.ImageView' and (@text = '' or . = '')]"}[39m
[35m[HTTP][39m [37m<-- POST /wd/hub/session/a7be4dbf-2c76-4f41-a61d-de3ebd791e7f/elements [39m[32m200[39m [90m343 ms - 779[39m
[35m[HTTP][39m [90m[39m
[35m[HTTP][39m [37m-->[39m [37mPOST[39m [37m/wd/hub/session/a7be4dbf-2c76-4f41-a61d-de3ebd791e7f/elements[39m
[35m[HTTP][39m [90m{"using":"-android uiautomator","value":"new UiSelector().className(\"android.widget.ImageView\")"}[39m
[35m[HTTP][39m [37m<-- POST /wd/hub/session/a7be4dbf-2c76-4f41-a61d-de3ebd791e7f/elements [39m[32m200[39m [90m244 ms - 779[39m
[35m[HTTP][39m [90m[39m
[35m[HTTP][39m [37m-->[39m [37mGET[39m [37m/wd/hub/session/a7be4dbf-2c76-4f41-a61d-de3ebd791e7f/window/rect[39m
[35m[HTTP][39m [90m{}[39m
[35m[HTTP][39m [37m<-- GET /wd/hub/session/a7be4dbf-2c76-4f41-a61d-de3ebd791e7f/window/rect [39m[32m200[39m [90m19 ms - 49[39m
[35m[HTTP][39m [90m[39m
[35m[HTTP][39m [37m-->[39m [37mPOST[39m [37m/wd/hub/session/a7be4dbf-2c76-4f41-a61d-de3ebd791e7f/elements[39m
[35m[HTTP][39m [90m{"using":"xpath","value":"//hierarchy/android.widget.FrameLayout[1]/android.widget.LinearLayout[1]/android.widget.FrameLayout[1]/android.widget.LinearLayout[1]/android.widget.FrameLayout[1]/android.widget.FrameLayout[1]/android.view.ViewGroup[1]/android.view.ViewGroup[1]/android.view.ViewGroup[1]/android.view.ViewGroup[1]/android.view.ViewGroup[1]/android.view.ViewGroup[1]/android.widget.FrameLayout[1]/android.view.ViewGroup[1]/android.view.ViewGroup[1]/android.view.ViewGroup[1]/android.view.ViewGroup[1]/android.view.ViewGroup[1]/android.widget.FrameLayout[1]/android.view.ViewGroup[1]/android.view.ViewGroup[1]/android.view.ViewGroup[1]/android.view.ViewGroup[1]/android.view.ViewGroup[1]/android.view.ViewGroup[1]/android.view.ViewGroup[1]/android.view.ViewGroup[1]/android.view.ViewGroup[2]/android.widget.ImageView[1]"}[39m
[35m[HTTP][39m [37m<-- POST /wd/hub/session/a7be4dbf-2c76-4f41-a61d-de3ebd791e7f/elements [39m[32m200[39m [90m236 ms - 139[39m
[35m[HTTP][39m [90m[39m
[35m[HTTP][39m [37m-->[39m [37mGET[39m [37m/wd/hub/session/a7be4dbf-2c76-4f41-a61d-de3ebd791e7f/element/00000000-0000-078e-ffff-ffff000000db/location[39m
[35m[HTTP][39m [90m{}[39m
[35m[W3C (a7be4dbf)][39m Driver proxy active, passing request on via HTTP proxy
[35m[WD Proxy][39m Replacing sessionId 61bf5105-7a0f-4e28-b149-3a651ad15204 with a7be4dbf-2c76-4f41-a61d-de3ebd791e7f
[35m[HTTP][39m [37m<-- GET /wd/hub/session/a7be4dbf-2c76-4f41-a61d-de3ebd791e7f/element/00000000-0000-078e-ffff-ffff000000db/location [39m[32m200[39m [90m27 ms - 77[39m
[35m[HTTP][39m [90m[39m
[35m[HTTP][39m [37m-->[39m [37mPOST[39m [37m/wd/hub/session/a7be4dbf-2c76-4f41-a61d-de3ebd791e7f/element/00000000-0000-078e-ffff-ffff000000db/click[39m
[35m[HTTP][39m [90m{"id":"00000000-0000-078e-ffff-ffff000000db"}[39m
[35m[HTTP][39m [37m<-- POST /wd/hub/session/a7be4dbf-2c76-4f41-a61d-de3ebd791e7f/element/00000000-0000-078e-ffff-ffff000000db/click [39m[32m200[39m [90m102 ms - 14[39m
[35m[HTTP][39m [90m[39m
[35m[HTTP][39m [37m-->[39m [37mGET[39m [37m/wd/hub/session/a7be4dbf-2c76-4f41-a61d-de3ebd791e7f/source[39m
[35m[HTTP][39m [90m{}[39m
[35m[W3C (a7be4dbf)][39m Driver proxy active, passing request on via HTTP proxy
[35m[WD Proxy][39m Replacing sessionId 61bf5105-7a0f-4e28-b149-3a651ad15204 with a7be4dbf-2c76-4f41-a61d-de3ebd791e7f
[35m[HTTP][39m [37m<-- GET /wd/hub/session/a7be4dbf-2c76-4f41-a61d-de3ebd791e7f/source [39m[32m200[39m [90m707 ms - 36084[39m
[35m[HTTP][39m [90m[39m
[35m[HTTP][39m [37m-->[39m [37mGET[39m [37m/wd/hub/session/a7be4dbf-2c76-4f41-a61d-de3ebd791e7f/screenshot[39m
[35m[HTTP][39m [90m{}[39m
[35m[HTTP][39m [37m<-- GET /wd/hub/session/a7be4dbf-2c76-4f41-a61d-de3ebd791e7f/screenshot [39m[32m200[39m [90m750 ms - 237896[39m
[35m[HTTP][39m [90m[39m
[35m[HTTP][39m [37m-->[39m [37mPOST[39m [37m/wd/hub/session/a7be4dbf-2c76-4f41-a61d-de3ebd791e7f/elements[39m
[35m[HTTP][39m [90m{"using":"xpath","value":"//*[@class = 'android.widget.ImageView' and (@text = '' or . = '')]"}[39m
[35m[HTTP][39m [37m<-- POST /wd/hub/session/a7be4dbf-2c76-4f41-a61d-de3ebd791e7f/elements [39m[32m200[39m [90m376 ms - 1163[39m
[35m[HTTP][39m [90m[39m
[35m[HTTP][39m [37m-->[39m [37mPOST[39m [37m/wd/hub/session/a7be4dbf-2c76-4f41-a61d-de3ebd791e7f/elements[39m
[35m[HTTP][39m [90m{"using":"-android uiautomator","value":"new UiSelector().className(\"android.widget.ImageView\")"}[39m
[35m[HTTP][39m [37m<-- POST /wd/hub/session/a7be4dbf-2c76-4f41-a61d-de3ebd791e7f/elements [39m[32m200[39m [90m246 ms - 1163[39m
[35m[HTTP][39m [90m[39m
[35m[HTTP][39m [37m-->[39m [37mGET[39m [37m/wd/hub/session/a7be4dbf-2c76-4f41-a61d-de3ebd791e7f/window/rect[39m
[35m[HTTP][39m [90m{}[39m
[35m[HTTP][39m [37m<-- GET /wd/hub/session/a7be4dbf-2c76-4f41-a61d-de3ebd791e7f/window/rect [39m[32m200[39m [90m24 ms - 49[39m
[35m[HTTP][39m [90m[39m
[35m[HTTP][39m [37m-->[39m [37mPOST[39m [37m/wd/hub/session/a7be4dbf-2c76-4f41-a61d-de3ebd791e7f/elements[39m
[35m[HTTP][39m [90m{"using":"xpath","value":"//hierarchy/android.widget.FrameLayout[1]/android.widget.LinearLayout[1]/android.widget.FrameLayout[1]/android.widget.LinearLayout[1]/android.widget.FrameLayout[1]/android.widget.FrameLayout[1]/android.view.ViewGroup[1]/android.view.ViewGroup[1]/android.view.ViewGroup[1]/android.view.ViewGroup[1]/android.view.ViewGroup[1]/android.view.ViewGroup[1]/android.widget.FrameLayout[1]/android.view.ViewGroup[1]/android.view.ViewGroup[1]/android.view.ViewGroup[1]/android.view.ViewGroup[1]/android.view.ViewGroup[1]/android.widget.FrameLayout[1]/android.view.ViewGroup[1]/android.view.ViewGroup[1]/android.view.ViewGroup[2]/android.view.ViewGroup[1]/android.view.ViewGroup[1]/android.view.ViewGroup[2]/android.widget.ScrollView[1]/android.view.ViewGroup[1]/android.view.ViewGroup[2]/android.view.ViewGroup[7]/android.widget.ImageView[1]"}[39m
[35m[HTTP][39m [37m<-- POST /wd/hub/session/a7be4dbf-2c76-4f41-a61d-de3ebd791e7f/elements [39m[32m200[39m [90m246 ms - 139[39m
[35m[HTTP][39m [90m[39m
[35m[HTTP][39m [37m-->[39m [37mGET[39m [37m/wd/hub/session/a7be4dbf-2c76-4f41-a61d-de3ebd791e7f/element/00000000-0000-078e-ffff-ffff00000103/location[39m
[35m[HTTP][39m [90m{}[39m
[35m[W3C (a7be4dbf)][39m Driver proxy active, passing request on via HTTP proxy
[35m[WD Proxy][39m Replacing sessionId 61bf5105-7a0f-4e28-b149-3a651ad15204 with a7be4dbf-2c76-4f41-a61d-de3ebd791e7f
[35m[HTTP][39m [37m<-- GET /wd/hub/session/a7be4dbf-2c76-4f41-a61d-de3ebd791e7f/element/00000000-0000-078e-ffff-ffff00000103/location [39m[32m200[39m [90m29 ms - 77[39m
[35m[HTTP][39m [90m[39m
[35m[HTTP][39m [37m-->[39m [37mPOST[39m [37m/wd/hub/session/a7be4dbf-2c76-4f41-a61d-de3ebd791e7f/element/00000000-0000-078e-ffff-ffff00000103/click[39m
[35m[HTTP][39m [90m{"id":"00000000-0000-078e-ffff-ffff00000103"}[39m
[35m[HTTP][39m [37m<-- POST /wd/hub/session/a7be4dbf-2c76-4f41-a61d-de3ebd791e7f/element/00000000-0000-078e-ffff-ffff00000103/click [39m[32m200[39m [90m89 ms - 14[39m
[35m[HTTP][39m [90m[39m
[35m[HTTP][39m [37m-->[39m [37mGET[39m [37m/wd/hub/session/a7be4dbf-2c76-4f41-a61d-de3ebd791e7f/source[39m
[35m[HTTP][39m [90m{}[39m
[35m[W3C (a7be4dbf)][39m Driver proxy active, passing request on via HTTP proxy
[35m[WD Proxy][39m Replacing sessionId 61bf5105-7a0f-4e28-b149-3a651ad15204 with a7be4dbf-2c76-4f41-a61d-de3ebd791e7f
[35m[HTTP][39m [37m<-- GET /wd/hub/session/a7be4dbf-2c76-4f41-a61d-de3ebd791e7f/source [39m[32m200[39m [90m574 ms - 20201[39m
[35m[HTTP][39m [90m[39m
[35m[HTTP][39m [37m-->[39m [37mGET[39m [37m/wd/hub/session/a7be4dbf-2c76-4f41-a61d-de3ebd791e7f/screenshot[39m
[35m[HTTP][39m [90m{}[39m
[35m[HTTP][39m [37m<-- GET /wd/hub/session/a7be4dbf-2c76-4f41-a61d-de3ebd791e7f/screenshot [39m[32m200[39m [90m684 ms - 73772[39m
[35m[HTTP][39m [90m[39m
[35m[HTTP][39m [37m-->[39m [37mPOST[39m [37m/wd/hub/session/a7be4dbf-2c76-4f41-a61d-de3ebd791e7f/elements[39m
[35m[HTTP][39m [90m{"using":"xpath","value":"//*[@class = 'android.widget.TextView' and (@text = 'No Items' or . = 'No Items')]"}[39m
[35m[HTTP][39m [37m<-- POST /wd/hub/session/a7be4dbf-2c76-4f41-a61d-de3ebd791e7f/elements [39m[32m200[39m [90m205 ms - 139[39m
[35m[HTTP][39m [90m[39m
[35m[HTTP][39m [37m-->[39m [37mPOST[39m [37m/wd/hub/session/a7be4dbf-2c76-4f41-a61d-de3ebd791e7f/elements[39m
[35m[HTTP][39m [90m{"using":"xpath","value":"//*[@class = 'android.widget.TextView' and (@text = 'No Items' or . = 'No Items')]"}[39m
[35m[HTTP][39m [37m<-- POST /wd/hub/session/a7be4dbf-2c76-4f41-a61d-de3ebd791e7f/elements [39m[32m200[39m [90m196 ms - 139[39m
[35m[HTTP][39m [90m[39m
[35m[HTTP][39m [37m-->[39m [37mGET[39m [37m/wd/hub/session/a7be4dbf-2c76-4f41-a61d-de3ebd791e7f/source[39m
[35m[HTTP][39m [90m{}[39m
[35m[W3C (a7be4dbf)][39m Driver proxy active, passing request on via HTTP proxy
[35m[WD Proxy][39m Replacing sessionId 61bf5105-7a0f-4e28-b149-3a651ad15204 with a7be4dbf-2c76-4f41-a61d-de3ebd791e7f
[35m[HTTP][39m [37m<-- GET /wd/hub/session/a7be4dbf-2c76-4f41-a61d-de3ebd791e7f/source [39m[32m200[39m [90m240 ms - 20201[39m
[35m[HTTP][39m [90m[39m
[35m[HTTP][39m [37m-->[39m [37mGET[39m [37m/wd/hub/session/a7be4dbf-2c76-4f41-a61d-de3ebd791e7f/screenshot[39m
[35m[HTTP][39m [90m{}[39m
[35m[HTTP][39m [37m<-- GET /wd/hub/session/a7be4dbf-2c76-4f41-a61d-de3ebd791e7f/screenshot [39m[32m200[39m [90m639 ms - 73772[39m
[35m[HTTP][39m [90m[39m
[35m[HTTP][39m [37m-->[39m [37mDELETE[39m [37m/wd/hub/session/a7be4dbf-2c76-4f41-a61d-de3ebd791e7f[39m
[35m[HTTP][39m [90m{}[39m
[35m[Appium][39m Removing session a7be4dbf-2c76-4f41-a61d-de3ebd791e7f from our master session list
[35m[UiAutomator2][39m Restoring hidden api policy to the device default configuration
[35m[HTTP][39m [37m<-- DELETE /wd/hub/session/a7be4dbf-2c76-4f41-a61d-de3ebd791e7f [39m[32m200[39m [90m674 ms - 14[39m
[35m[HTTP][39m [90m[39m
